<svg width="1940" height="1001" viewBox="0 0 1440 501" fill="none" xmlns="http://www.w3.org/2000/svg">
<path d="M1440 432.523V-271H0V235.834C1.86011 243.524 8.70007 249.252 16.9734 249.252C26.7008 249.252 34.4468 241.334 34.4468 231.617V209.843C34.4468 200.126 42.1927 192.208 51.9202 192.208H52.1002C61.8276 192.208 69.5736 200.126 69.5736 209.843V344.805C69.5736 354.522 77.3197 362.44 87.0471 362.44H87.2272C96.9546 362.44 104.701 354.522 104.701 344.805V150.64C104.701 140.923 112.447 133.005 122.174 133.005H122.354C132.082 133.005 139.828 140.923 139.828 150.64V316.373C139.828 326.09 147.573 334.008 157.301 334.008H157.481C167.208 334.008 174.954 341.925 174.954 351.643V399.869C174.954 409.586 182.7 417.504 192.428 417.504H192.608C202.335 417.504 210.081 409.586 210.081 399.869V212.362C210.081 202.645 217.827 194.727 227.555 194.727H227.735C237.462 194.727 245.208 202.645 245.208 212.362V344.265C245.208 353.982 252.954 361.9 262.682 361.9H262.862C272.589 361.9 280.335 353.982 280.335 344.265V209.663C280.335 199.946 288.081 192.028 297.808 192.028H297.989C307.716 192.028 315.462 199.946 315.462 209.663V460.692C315.462 470.409 323.208 478.326 332.935 478.326H333.836C343.564 478.326 351.31 470.409 351.31 460.692V365.139C351.31 355.422 359.056 347.504 368.783 347.504H368.963C378.69 347.504 386.436 355.422 386.436 365.139V424.162C386.436 433.879 394.182 441.797 403.91 441.797H404.09C413.817 441.797 421.563 433.879 421.563 424.162V285.781C421.563 276.064 429.309 268.146 439.037 268.146H439.577C449.305 268.146 457.051 276.064 457.051 285.781V371.437C457.051 381.154 464.796 389.072 474.524 389.072H474.704C484.432 389.072 492.178 396.99 492.178 406.707V460.692C492.178 470.409 499.923 478.326 509.651 478.326H511.452C521 478.326 528.565 470.589 528.565 461.231V413.725C528.565 404.188 536.311 396.63 545.678 396.63H548.741C558.288 396.63 565.854 404.368 565.854 413.725V483.905C565.854 493.442 573.6 501 582.967 501H584.408C593.955 501 601.521 493.442 601.701 480.486V333.468C601.521 327.53 609.267 319.972 618.634 319.972H619.715C629.263 319.972 636.828 327.71 636.828 337.067V420.563C636.828 430.82 645.115 439.098 655.383 439.098C664.93 439.098 672.496 431.36 672.496 422.003V377.375C672.496 367.838 680.242 360.28 689.609 360.28H691.05C700.597 360.28 708.163 368.018 708.163 377.375V448.275C708.163 457.812 715.909 465.37 725.276 465.37H726.357C735.904 465.37 743.47 457.632 743.47 448.275V431C743.47 421.643 750.856 414.265 760.043 413.905H760.223C769.95 413.725 777.876 421.463 777.876 431V478.146C777.876 487.684 785.622 495.242 794.99 495.242H797.511C807.059 495.242 814.625 487.504 814.625 478.146V356.861C814.625 347.324 822.37 339.766 831.738 339.766C841.285 339.766 848.851 347.504 848.851 356.861V405.087C848.851 414.625 856.597 422.182 865.964 422.182H867.045C876.592 422.182 884.158 414.445 884.158 405.087V286.141C884.158 276.604 891.904 269.046 901.271 269.046H902.712C912.259 269.046 919.825 276.784 919.825 286.141V391.051C919.825 400.589 927.571 408.326 937.118 408.326H937.839C947.386 408.326 955.132 400.589 955.132 391.051V341.386C955.132 331.848 962.878 324.111 972.425 324.111H973.146C982.693 324.111 990.439 316.373 990.439 306.835V224.239C990.439 214.702 998.185 206.964 1007.73 206.964C1017.28 206.964 1025.03 214.522 1025.03 224.059L1025.57 390.512C1025.75 399.869 1033.31 407.607 1042.86 407.607H1044.12C1053.67 407.607 1061.41 399.869 1061.41 390.332V284.882C1061.41 275.344 1069.16 267.607 1078.71 267.607H1079.43C1088.97 267.607 1096.72 275.344 1096.72 284.882V360.64C1096.72 370.177 1104.47 377.915 1114.01 377.915H1114.73C1124.28 377.915 1132.03 370.177 1132.03 360.64V285.242C1132.03 275.704 1139.77 267.967 1149.32 267.967H1150.04C1159.59 267.967 1167.33 275.704 1167.33 285.242V428.481C1167.33 438.018 1175.08 445.756 1184.63 445.756H1185.35C1194.9 445.756 1202.64 438.018 1202.64 428.481V393.571C1202.64 384.033 1210.39 376.296 1219.94 376.296H1220.66C1230.2 376.296 1237.95 368.558 1237.95 359.021V227.298C1237.95 217.761 1245.69 210.023 1255.24 210.023H1255.96C1265.51 210.023 1273.26 217.761 1273.26 227.298V375.936C1273.26 385.473 1281 393.211 1290.55 393.211H1291.27C1300.82 393.211 1308.56 385.473 1308.56 375.936V281.463C1308.56 271.925 1316.31 264.188 1325.86 264.188H1326.58C1336.12 264.188 1343.87 271.925 1343.87 281.463V353.442C1343.87 362.979 1351.62 370.717 1361.16 370.717H1361.88C1371.43 370.717 1379.18 362.979 1379.18 353.442V249.612C1379.18 240.075 1386.92 232.337 1396.47 232.337H1397.55C1407.1 232.337 1414.84 240.075 1414.84 249.612V415.884C1414.84 425.422 1422.59 433.159 1432.14 433.159H1432.86C1435.78 433.159 1438.14 433.008 1440 432.523Z" fill="url(#paint0_radial)"/>
<defs>
<radialGradient id="paint0_radial" cx="0" cy="0" r="1" gradientUnits="userSpaceOnUse" gradientTransform="translate(236 -473) rotate(38.0101) scale(1487.49 1485.93)">
<stop offset="0.3043" stop-opacity="0.2"/>
<stop offset="0.8153" stop-color="#0C68FF"/>
</radialGradient>
</defs>
</svg>
